Investigación No Experimental y Estadística - Análisis de Regresión Lineal Simple (RLS)
…
Ahora imaginemos que tenemos un participante con 10 puntos en la escala de procastinación, ¿cuál sería su valor estimado de rendimiento académico?

\(Y = 2.14 + 1.4(10) \pm .8 = [15.34, 16.94]\)

El rendimiento esperado se encontraría dentro del intervalo de confianza de 15.34 a 16.94.

Ejemplo 1

Un grupo de investigadores plantea que el afrontamiento centrado en el problema predice un menor estrés académico percibido por los estudiantes. Para evaluar su hipótesis tomaron una muestra de 72 jóvenes quienes respondieron a medidas de afrontamiento y estrés académico.

data <- haven::read_sav("https://github.com/renatoparedes/EstadisticaYPsicologiaMatematica/raw/main/INEE/Clase9_BaseRegresionLinealSimpleYMultiple.sav")

data

# A tibble: 72 × 8
   Código Sexo       Relación HistVinc Afroproblema Afroemoción Estrés_académico
   <chr>  <dbl+lbl>  <dbl+lb>    <dbl>        <dbl>       <dbl>            <dbl>
 1 001    2 [Femeni… 1 [Si]          6         29.2          38               45
 2 002    2 [Femeni… 0 [No]          7         23.8          45               45
 3 003    2 [Femeni… 0 [No]          8         24.6          50               45
 4 004    2 [Femeni… 0 [No]          5         21.5          45               45
 5 005    2 [Femeni… 1 [Si]          8         30            49               44
 6 006    2 [Femeni… 1 [Si]          6         33.1          48               44
 7 007    1 [Mascul… 0 [No]          6         31.5          44               43
 8 008    1 [Mascul… 1 [Si]         11         21.5          36               43
 9 009    2 [Femeni… 0 [No]          8         22.3          35               43
10 010    2 [Femeni… 1 [Si]          8         23.8          32               42
# ℹ 62 more rows
# ℹ 1 more variable: ZRE_1 <dbl>
…
